<?xml version="1.0" encoding="UTF-8" standalone="no"?>
<svg
   xmlns:dc="http://purl.org/dc/elements/1.1/"
   xmlns:cc="http://creativecommons.org/ns#"
   xmlns:rdf="http://www.w3.org/1999/02/22-rdf-syntax-ns#"
   xmlns:svg="http://www.w3.org/2000/svg"
   xmlns="http://www.w3.org/2000/svg"
   xmlns:sodipodi="http://sodipodi.sourceforge.net/DTD/sodipodi-0.dtd"
   xmlns:inkscape="http://www.inkscape.org/namespaces/inkscape"
   inkscape:version="1.0 (4035a4fb49, 2020-05-01)"
   sodipodi:docname="arm.svg"
   id="svg19"
   version="1.1"
   height="512"
   width="512"
   viewBox="0 0 64 64">
  <metadata
     id="metadata25">
    <rdf:RDF>
      <cc:Work
         rdf:about="">
        <dc:format>image/svg+xml</dc:format>
        <dc:type
           rdf:resource="http://purl.org/dc/dcmitype/StillImage" />
      </cc:Work>
    </rdf:RDF>
  </metadata>
  <defs
     id="defs23" />
  <sodipodi:namedview
     inkscape:current-layer="svg19"
     inkscape:window-maximized="1"
     inkscape:window-y="310"
     inkscape:window-x="1080"
     inkscape:cy="256"
     inkscape:cx="256"
     inkscape:zoom="1.4355469"
     showgrid="false"
     id="namedview21"
     inkscape:window-height="1295"
     inkscape:window-width="2400"
     inkscape:pageshadow="2"
     inkscape:pageopacity="0"
     guidetolerance="10"
     gridtolerance="10"
     objecttolerance="10"
     borderopacity="1"
     bordercolor="#666666"
     pagecolor="#ffffff"
     inkscape:document-rotation="0"
     showguides="true"
     inkscape:guide-bbox="true"
     inkscape:snap-page="true">
    <sodipodi:guide
       position="0,50.343123"
       orientation="1,0"
       id="guide838" />
    <sodipodi:guide
       position="64,42.023847"
       orientation="1,0"
       id="guide840" />
    <sodipodi:guide
       position="25.27349,5.1152859"
       orientation="1,0"
       id="guide860" />
    <sodipodi:guide
       position="38.243601,4.458547"
       orientation="1,0"
       id="guide862" />
    <sodipodi:guide
       position="31.998915,73.735746"
       orientation="1,0"
       id="guide864" />
  </sodipodi:namedview>
  <g
     style="fill:#57cbcc;fill-opacity:1"
     data-name="Robot hand"
     id="Robot_hand"
     transform="translate(-2.5)">
    <path
       style="fill:#57cbcc;fill-opacity:1"
       id="path2"
       d="m 50,29 a 1,1 0 0 0 1,-1 V 13 a 3,3 0 0 0 -3,-3 h -1 a 3,3 0 0 0 -3,3 v 15 a 1,1 0 0 0 1,1 h 2 v 2 h -6 v -2 h 1 a 1,1 0 0 0 1,-1 V 9 A 3,3 0 0 0 40,6 h -1 a 3,3 0 0 0 -3,3 v 19 a 1,1 0 0 0 1,1 h 2 v 2 h -6 v -2 h 1 a 1,1 0 0 0 1,-1 V 4 A 3,3 0 0 0 32,1 h -1 a 3,3 0 0 0 -3,3 v 24 a 1,1 0 0 0 1,1 h 2 v 2 h -6 v -2 h 1 a 1,1 0 0 0 1,-1 V 9 A 3,3 0 0 0 24,6 h -1 a 3,3 0 0 0 -3,3 v 19 a 1,1 0 0 0 1,1 h 2 v 2 h -2 a 1,1 0 0 0 -1,1 v 10.234 l -2.593,-1.556 0.621,-0.254 a 1,1 0 0 0 0.548,-1.3 L 13.66,27.085 A 3,3 0 0 0 9.749,25.442 L 8.822,25.82 A 3,3 0 0 0 7.18,29.731 l 4.92,12.036 a 1,1 0 0 0 0.539,0.544 1.017,1.017 0 0 0 0.387,0.078 0.992,0.992 0 0 0 0.378,-0.075 l 1.789,-0.73 a 1,1 0 0 0 0.3,0.273 L 20,44.566 V 51 a 5.006,5.006 0 0 0 5,5 h 1 v 6 a 1,1 0 0 0 1,1 h 15 a 1,1 0 0 0 1,-1 v -6 h 0.469 a 5.007,5.007 0 0 0 4.961,-4.374 l 2.562,-19.5 A 1,1 0 0 0 50,31 H 49 V 29 Z M 38,27 v -9 h 1 a 1,1 0 0 0 0,-2 H 38 V 9 a 1,1 0 0 1 1,-1 h 1 a 1,1 0 0 1 1,1 v 18 z m -8,0 v -8 h 1 a 1,1 0 0 0 0,-2 H 30 V 4 a 1,1 0 0 1 1,-1 h 1 a 1,1 0 0 1 1,1 v 23 z m -8,0 V 9 a 1,1 0 0 1 1,-1 h 1 a 1,1 0 0 1 1,1 v 8 h -1 a 1,1 0 0 0 0,2 h 1 v 8 z M 9.032,28.976 a 1,1 0 0 1 0.547,-1.3 l 0.926,-0.378 a 1,1 0 0 1 1.3,0.547 L 16.347,38.95 13.57,40.085 Z M 41,61 H 28 v -5 h 13 z m 5.446,-9.628 A 3,3 0 0 1 43.469,54 H 25 A 3,3 0 0 1 22,51 V 33 H 48.86 Z M 46,27 V 13 a 1,1 0 0 1 1,-1 h 1 a 1,1 0 0 1 1,1 v 5 h -1 a 1,1 0 0 0 0,2 h 1 v 7 z" />
    <path
       style="fill:#57cbcc;fill-opacity:1"
       id="path4"
       d="m 24,36 h 7 a 1,1 0 0 0 0,-2 h -7 a 1,1 0 0 0 0,2 z" />
    <path
       style="fill:#57cbcc;fill-opacity:1"
       id="path6"
       d="m 34,36 h 1 a 1,1 0 0 0 0,-2 h -1 a 1,1 0 0 0 0,2 z" />
    <path
       style="fill:#57cbcc;fill-opacity:1"
       id="path8"
       d="M 31.555,48.168 29,46.465 V 45 a 0.9,0.9 0 0 0 -0.035,-0.173 3,3 0 1 0 -1.93,0 A 0.9,0.9 0 0 0 27,45 v 2 a 1,1 0 0 0 0.445,0.832 L 30,49.535 V 51 a 1,1 0 0 0 2,0 V 49 A 1,1 0 0 0 31.555,48.168 Z M 28,41 a 1,1 0 1 1 -1,1 1,1 0 0 1 1,-1 z" />
    <path
       style="fill:#57cbcc;fill-opacity:1"
       id="path10"
       d="m 40,44.586 -3.707,3.707 A 1,1 0 0 0 36,49 v 2 a 1,1 0 0 0 2,0 v -1.586 l 3.707,-3.707 A 1,1 0 0 0 42,45 v -3 a 0.9,0.9 0 0 0 -0.035,-0.173 3,3 0 1 0 -1.93,0 A 0.9,0.9 0 0 0 40,42 Z M 41,38 a 1,1 0 1 1 -1,1 1,1 0 0 1 1,-1 z" />
    <path
       style="fill:#57cbcc;fill-opacity:1"
       id="path12"
       d="m 34,52 a 1,1 0 0 0 1,-1 v -9 a 1,1 0 0 0 -2,0 v 9 a 1,1 0 0 0 1,1 z" />
    <path
       style="fill:#57cbcc;fill-opacity:1"
       id="path14"
       d="m 43,44 v 4 a 1,1 0 0 0 2,0 v -4 a 1,1 0 0 0 -2,0 z" />
    <path
       style="fill:#57cbcc;fill-opacity:1"
       id="path16"
       d="m 25,48 a 1,1 0 0 0 -1,1 v 1 a 1,1 0 0 0 2,0 v -1 a 1,1 0 0 0 -1,-1 z" />
  </g>
</svg>
